<?xml version="1.0" encoding="UTF-8" standalone="no"?>
<!DOCTYPE svg PUBLIC "-//W3C//DTD SVG 1.1//EN"
 "http://www.w3.org/Graphics/SVG/1.1/DTD/svg11.dtd">
<!-- Generated by graphviz version 2.30.1 (20140607.1519)
 -->
<!-- Title: models_diagram Pages: 1 -->
<svg width="1208pt" height="1814pt"
 viewBox="0.00 0.00 1208.00 1814.00" xmlns="http://www.w3.org/2000/svg" xmlns:xlink="http://www.w3.org/1999/xlink">
<g id="graph0" class="graph" transform="scale(1 1) rotate(0) translate(4 1810)">
<title>models_diagram</title>
<polygon fill="white" stroke="white" points="-4,5 -4,-1810 1205,-1810 1205,5 -4,5"/>
<!-- _diagram_info -->
<g id="node1" class="node"><title>_diagram_info</title>
<text text-anchor="start" x="260.312" y="-1789" font-family="Times,serif" font-size="13.00">Models diagram</text>
<text text-anchor="start" x="260.312" y="-1773.4" font-family="Times,serif" font-size="13.00">Date: Jun 07 2014 &#45; 08:32</text>
<text text-anchor="start" x="260.312" y="-1757.8" font-family="Times,serif" font-size="13.00">Migration version: 20140603195904</text>
<text text-anchor="start" x="260.312" y="-1742.2" font-family="Times,serif" font-size="13.00">Generated by RailRoady 1.1.1</text>
<text text-anchor="start" x="260.312" y="-1726.6" font-family="Times,serif" font-size="13.00">http://railroady.prestonlee.com</text>
</g>
<!-- AdminUser -->
<g id="node2" class="node"><title>AdminUser</title>
<path fill="none" stroke="black" d="M11.7222,-1430.4C11.7222,-1430.4 192.278,-1430.4 192.278,-1430.4 198.278,-1430.4 204.278,-1436.4 204.278,-1442.4 204.278,-1442.4 204.278,-1669.6 204.278,-1669.6 204.278,-1675.6 198.278,-1681.6 192.278,-1681.6 192.278,-1681.6 11.7222,-1681.6 11.7222,-1681.6 5.72217,-1681.6 -0.277832,-1675.6 -0.277832,-1669.6 -0.277832,-1669.6 -0.277832,-1442.4 -0.277832,-1442.4 -0.277832,-1436.4 5.72217,-1430.4 11.7222,-1430.4"/>
<text text-anchor="middle" x="102" y="-1663.6" font-family="Times,serif" font-size="14.00">AdminUser</text>
<polyline fill="none" stroke="black" points="-0.277832,-1656.8 204.278,-1656.8 "/>
<text text-anchor="start" x="7.72217" y="-1638.8" font-family="Times,serif" font-size="14.00">id :integer</text>
<text text-anchor="start" x="7.72217" y="-1622" font-family="Times,serif" font-size="14.00">email :string</text>
<text text-anchor="start" x="7.72217" y="-1605.2" font-family="Times,serif" font-size="14.00">encrypted_password :string</text>
<text text-anchor="start" x="7.72217" y="-1588.4" font-family="Times,serif" font-size="14.00">reset_password_token :string</text>
<text text-anchor="start" x="7.72217" y="-1571.6" font-family="Times,serif" font-size="14.00">reset_password_sent_at :datetime</text>
<text text-anchor="start" x="7.72217" y="-1554.8" font-family="Times,serif" font-size="14.00">remember_created_at :datetime</text>
<text text-anchor="start" x="7.72217" y="-1538" font-family="Times,serif" font-size="14.00">sign_in_count :integer</text>
<text text-anchor="start" x="7.72217" y="-1521.2" font-family="Times,serif" font-size="14.00">current_sign_in_at :datetime</text>
<text text-anchor="start" x="7.72217" y="-1504.4" font-family="Times,serif" font-size="14.00">last_sign_in_at :datetime</text>
<text text-anchor="start" x="7.72217" y="-1487.6" font-family="Times,serif" font-size="14.00">current_sign_in_ip :string</text>
<text text-anchor="start" x="7.72217" y="-1470.8" font-family="Times,serif" font-size="14.00">last_sign_in_ip :string</text>
<text text-anchor="start" x="7.72217" y="-1454" font-family="Times,serif" font-size="14.00">created_at :datetime</text>
<text text-anchor="start" x="7.72217" y="-1437.2" font-family="Times,serif" font-size="14.00">updated_at :datetime</text>
</g>
<!-- AgeGroup -->
<g id="node3" class="node"><title>AgeGroup</title>
<path fill="none" stroke="black" d="M368.495,-247.6C368.495,-247.6 477.505,-247.6 477.505,-247.6 483.505,-247.6 489.505,-253.6 489.505,-259.6 489.505,-259.6 489.505,-352.4 489.505,-352.4 489.505,-358.4 483.505,-364.4 477.505,-364.4 477.505,-364.4 368.495,-364.4 368.495,-364.4 362.495,-364.4 356.495,-358.4 356.495,-352.4 356.495,-352.4 356.495,-259.6 356.495,-259.6 356.495,-253.6 362.495,-247.6 368.495,-247.6"/>
<text text-anchor="middle" x="423" y="-346.4" font-family="Times,serif" font-size="14.00">AgeGroup</text>
<polyline fill="none" stroke="black" points="356.495,-339.6 489.505,-339.6 "/>
<text text-anchor="start" x="364.495" y="-321.6" font-family="Times,serif" font-size="14.00">id :integer</text>
<text text-anchor="start" x="364.495" y="-304.8" font-family="Times,serif" font-size="14.00">group_name :string</text>
<text text-anchor="start" x="364.495" y="-288" font-family="Times,serif" font-size="14.00">description :string</text>
<text text-anchor="start" x="364.495" y="-271.2" font-family="Times,serif" font-size="14.00">created_at :datetime</text>
<text text-anchor="start" x="364.495" y="-254.4" font-family="Times,serif" font-size="14.00">updated_at :datetime</text>
</g>
<!-- PlacesAgeGroup -->
<g id="node11" class="node"><title>PlacesAgeGroup</title>
<path fill="none" stroke="black" d="M445.381,-25.6C445.381,-25.6 560.619,-25.6 560.619,-25.6 566.619,-25.6 572.619,-31.6 572.619,-37.6 572.619,-37.6 572.619,-130.4 572.619,-130.4 572.619,-136.4 566.619,-142.4 560.619,-142.4 560.619,-142.4 445.381,-142.4 445.381,-142.4 439.381,-142.4 433.381,-136.4 433.381,-130.4 433.381,-130.4 433.381,-37.6 433.381,-37.6 433.381,-31.6 439.381,-25.6 445.381,-25.6"/>
<text text-anchor="middle" x="503" y="-124.4" font-family="Times,serif" font-size="14.00">PlacesAgeGroup</text>
<polyline fill="none" stroke="black" points="433.381,-117.6 572.619,-117.6 "/>
<text text-anchor="start" x="441.381" y="-99.6" font-family="Times,serif" font-size="14.00">id :integer</text>
<text text-anchor="start" x="441.381" y="-82.8" font-family="Times,serif" font-size="14.00">place_id :integer</text>
<text text-anchor="start" x="441.381" y="-66" font-family="Times,serif" font-size="14.00">age_group_id :integer</text>
<text text-anchor="start" x="441.381" y="-49.2" font-family="Times,serif" font-size="14.00">created_at :datetime</text>
<text text-anchor="start" x="441.381" y="-32.4" font-family="Times,serif" font-size="14.00">updated_at :datetime</text>
</g>
<!-- AgeGroup&#45;&gt;PlacesAgeGroup -->
<g id="edge2" class="edge"><title>AgeGroup&#45;&gt;PlacesAgeGroup</title>
<path fill="none" stroke="#094b72" d="M446.72,-239.769C456.759,-212.163 468.447,-180.021 478.562,-152.205"/>
<ellipse fill="none" stroke="#094b72" cx="445.282" cy="-243.726" rx="4.00001" ry="4.00001"/>
<polygon fill="#094b72" stroke="#094b72" points="478.651,-151.959 486.298,-144.099 480.36,-147.26 482.069,-142.561 482.069,-142.561 482.069,-142.561 480.36,-147.26 477.84,-141.023 478.651,-151.959 478.651,-151.959"/>
</g>
<!-- Places -->
<g id="node17" class="node"><title>Places</title>
<ellipse fill="none" stroke="black" cx="380" cy="-84" rx="35.5596" ry="18"/>
<text text-anchor="middle" x="380" y="-78.4" font-family="Times,serif" font-size="14.00">Places</text>
</g>
<!-- AgeGroup&#45;&gt;Places -->
<g id="edge3" class="edge"><title>AgeGroup&#45;&gt;Places</title>
<path fill="none" stroke="#bdc858" d="M409.832,-237.628C401.59,-195.459 391.415,-143.4 385.33,-112.272"/>
<polygon fill="#bdc858" stroke="#bdc858" points="409.84,-237.671 407.342,-248.348 410.799,-242.578 411.758,-247.485 411.758,-247.485 411.758,-247.485 410.799,-242.578 416.175,-246.622 409.84,-237.671 409.84,-237.671"/>
<polygon fill="#bdc858" stroke="#bdc858" points="385.277,-111.999 387.775,-101.321 384.318,-107.091 383.359,-102.184 383.359,-102.184 383.359,-102.184 384.318,-107.091 378.942,-103.048 385.277,-111.999 385.277,-111.999"/>
<text text-anchor="middle" x="419.49" y="-189.4" font-family="Times,serif" font-size="14.00">places</text>
</g>
<!-- Authorization -->
<g id="node4" class="node"><title>Authorization</title>
<path fill="none" stroke="black" d="M272.495,-1489.2C272.495,-1489.2 381.505,-1489.2 381.505,-1489.2 387.505,-1489.2 393.505,-1495.2 393.505,-1501.2 393.505,-1501.2 393.505,-1610.8 393.505,-1610.8 393.505,-1616.8 387.505,-1622.8 381.505,-1622.8 381.505,-1622.8 272.495,-1622.8 272.495,-1622.8 266.495,-1622.8 260.495,-1616.8 260.495,-1610.8 260.495,-1610.8 260.495,-1501.2 260.495,-1501.2 260.495,-1495.2 266.495,-1489.2 272.495,-1489.2"/>
<text text-anchor="middle" x="327" y="-1604.8" font-family="Times,serif" font-size="14.00">Authorization</text>
<polyline fill="none" stroke="black" points="260.495,-1598 393.505,-1598 "/>
<text text-anchor="start" x="268.495" y="-1580" font-family="Times,serif" font-size="14.00">id :integer</text>
<text text-anchor="start" x="268.495" y="-1563.2" font-family="Times,serif" font-size="14.00">provider :string</text>
<text text-anchor="start" x="268.495" y="-1546.4" font-family="Times,serif" font-size="14.00">uid :string</text>
<text text-anchor="start" x="268.495" y="-1529.6" font-family="Times,serif" font-size="14.00">user_id :integer</text>
<text text-anchor="start" x="268.495" y="-1512.8" font-family="Times,serif" font-size="14.00">created_at :datetime</text>
<text text-anchor="start" x="268.495" y="-1496" font-family="Times,serif" font-size="14.00">updated_at :datetime</text>
</g>
<!-- BusinessHour -->
<g id="node5" class="node"><title>BusinessHour</title>
<path fill="none" stroke="black" d="M524.495,-222.4C524.495,-222.4 633.505,-222.4 633.505,-222.4 639.505,-222.4 645.505,-228.4 645.505,-234.4 645.505,-234.4 645.505,-377.6 645.505,-377.6 645.505,-383.6 639.505,-389.6 633.505,-389.6 633.505,-389.6 524.495,-389.6 524.495,-389.6 518.495,-389.6 512.495,-383.6 512.495,-377.6 512.495,-377.6 512.495,-234.4 512.495,-234.4 512.495,-228.4 518.495,-222.4 524.495,-222.4"/>
<text text-anchor="middle" x="579" y="-371.6" font-family="Times,serif" font-size="14.00">BusinessHour</text>
<polyline fill="none" stroke="black" points="512.495,-364.8 645.505,-364.8 "/>
<text text-anchor="start" x="520.495" y="-346.8" font-family="Times,serif" font-size="14.00">id :integer</text>
<text text-anchor="start" x="520.495" y="-330" font-family="Times,serif" font-size="14.00">place_id :integer</text>
<text text-anchor="start" x="520.495" y="-313.2" font-family="Times,serif" font-size="14.00">day :string</text>
<text text-anchor="start" x="520.495" y="-296.4" font-family="Times,serif" font-size="14.00">open_time :time</text>
<text text-anchor="start" x="520.495" y="-279.6" font-family="Times,serif" font-size="14.00">close_time :time</text>
<text text-anchor="start" x="520.495" y="-262.8" font-family="Times,serif" font-size="14.00">closed :boolean</text>
<text text-anchor="start" x="520.495" y="-246" font-family="Times,serif" font-size="14.00">created_at :datetime</text>
<text text-anchor="start" x="520.495" y="-229.2" font-family="Times,serif" font-size="14.00">updated_at :datetime</text>
</g>
<!-- CategoriesFeature -->
<g id="node6" class="node"><title>CategoriesFeature</title>
<path fill="none" stroke="black" d="M501.495,-588.6C501.495,-588.6 610.505,-588.6 610.505,-588.6 616.505,-588.6 622.505,-594.6 622.505,-600.6 622.505,-600.6 622.505,-693.4 622.505,-693.4 622.505,-699.4 616.505,-705.4 610.505,-705.4 610.505,-705.4 501.495,-705.4 501.495,-705.4 495.495,-705.4 489.495,-699.4 489.495,-693.4 489.495,-693.4 489.495,-600.6 489.495,-600.6 489.495,-594.6 495.495,-588.6 501.495,-588.6"/>
<text text-anchor="middle" x="556" y="-687.4" font-family="Times,serif" font-size="14.00">CategoriesFeature</text>
<polyline fill="none" stroke="black" points="489.495,-680.6 622.505,-680.6 "/>
<text text-anchor="start" x="497.495" y="-662.6" font-family="Times,serif" font-size="14.00">id :integer</text>
<text text-anchor="start" x="497.495" y="-645.8" font-family="Times,serif" font-size="14.00">category_id :integer</text>
<text text-anchor="start" x="497.495" y="-629" font-family="Times,serif" font-size="14.00">feature_id :integer</text>
<text text-anchor="start" x="497.495" y="-612.2" font-family="Times,serif" font-size="14.00">created_at :datetime</text>
<text text-anchor="start" x="497.495" y="-595.4" font-family="Times,serif" font-size="14.00">updated_at :datetime</text>
</g>
<!-- Category -->
<g id="node7" class="node"><title>Category</title>
<path fill="none" stroke="black" d="M576.495,-1506C576.495,-1506 685.505,-1506 685.505,-1506 691.505,-1506 697.505,-1512 697.505,-1518 697.505,-1518 697.505,-1594 697.505,-1594 697.505,-1600 691.505,-1606 685.505,-1606 685.505,-1606 576.495,-1606 576.495,-1606 570.495,-1606 564.495,-1600 564.495,-1594 564.495,-1594 564.495,-1518 564.495,-1518 564.495,-1512 570.495,-1506 576.495,-1506"/>
<text text-anchor="middle" x="631" y="-1588" font-family="Times,serif" font-size="14.00">Category</text>
<polyline fill="none" stroke="black" points="564.495,-1581.2 697.505,-1581.2 "/>
<text text-anchor="start" x="572.495" y="-1563.2" font-family="Times,serif" font-size="14.00">id :integer</text>
<text text-anchor="start" x="572.495" y="-1546.4" font-family="Times,serif" font-size="14.00">name :string</text>
<text text-anchor="start" x="572.495" y="-1529.6" font-family="Times,serif" font-size="14.00">created_at :datetime</text>
<text text-anchor="start" x="572.495" y="-1512.8" font-family="Times,serif" font-size="14.00">updated_at :datetime</text>
</g>
<!-- Place -->
<g id="node10" class="node"><title>Place</title>
<path fill="none" stroke="black" d="M652.046,-429C652.046,-429 771.954,-429 771.954,-429 777.954,-429 783.954,-435 783.954,-441 783.954,-441 783.954,-853 783.954,-853 783.954,-859 777.954,-865 771.954,-865 771.954,-865 652.046,-865 652.046,-865 646.046,-865 640.046,-859 640.046,-853 640.046,-853 640.046,-441 640.046,-441 640.046,-435 646.046,-429 652.046,-429"/>
<text text-anchor="middle" x="712" y="-847" font-family="Times,serif" font-size="14.00">Place</text>
<polyline fill="none" stroke="black" points="640.046,-840.2 783.954,-840.2 "/>
<text text-anchor="start" x="648.046" y="-822.2" font-family="Times,serif" font-size="14.00">id :integer</text>
<text text-anchor="start" x="648.046" y="-805.4" font-family="Times,serif" font-size="14.00">name :string</text>
<text text-anchor="start" x="648.046" y="-788.6" font-family="Times,serif" font-size="14.00">rating :float</text>
<text text-anchor="start" x="648.046" y="-771.8" font-family="Times,serif" font-size="14.00">category_id :integer</text>
<text text-anchor="start" x="648.046" y="-755" font-family="Times,serif" font-size="14.00">description :text</text>
<text text-anchor="start" x="648.046" y="-738.2" font-family="Times,serif" font-size="14.00">price :integer</text>
<text text-anchor="start" x="648.046" y="-721.4" font-family="Times,serif" font-size="14.00">street :text</text>
<text text-anchor="start" x="648.046" y="-704.6" font-family="Times,serif" font-size="14.00">phone_num :string</text>
<text text-anchor="start" x="648.046" y="-687.8" font-family="Times,serif" font-size="14.00">website :string</text>
<text text-anchor="start" x="648.046" y="-671" font-family="Times,serif" font-size="14.00">user_id :integer</text>
<text text-anchor="start" x="648.046" y="-654.2" font-family="Times,serif" font-size="14.00">created_at :datetime</text>
<text text-anchor="start" x="648.046" y="-637.4" font-family="Times,serif" font-size="14.00">updated_at :datetime</text>
<text text-anchor="start" x="648.046" y="-620.6" font-family="Times,serif" font-size="14.00">last_edited_by :integer</text>
<text text-anchor="start" x="648.046" y="-603.8" font-family="Times,serif" font-size="14.00">country :string</text>
<text text-anchor="start" x="648.046" y="-587" font-family="Times,serif" font-size="14.00">state :string</text>
<text text-anchor="start" x="648.046" y="-570.2" font-family="Times,serif" font-size="14.00">city :string</text>
<text text-anchor="start" x="648.046" y="-553.4" font-family="Times,serif" font-size="14.00">zip_code :integer</text>
<text text-anchor="start" x="648.046" y="-536.6" font-family="Times,serif" font-size="14.00">slug :string</text>
<text text-anchor="start" x="648.046" y="-519.8" font-family="Times,serif" font-size="14.00">latitude :decimal</text>
<text text-anchor="start" x="648.046" y="-503" font-family="Times,serif" font-size="14.00">longitude :decimal</text>
<text text-anchor="start" x="648.046" y="-486.2" font-family="Times,serif" font-size="14.00">event_start_date :date</text>
<text text-anchor="start" x="648.046" y="-469.4" font-family="Times,serif" font-size="14.00">event_end_date :date</text>
<text text-anchor="start" x="648.046" y="-452.6" font-family="Times,serif" font-size="14.00">event_price :decimal</text>
<text text-anchor="start" x="648.046" y="-435.8" font-family="Times,serif" font-size="14.00">recurrence_id :integer</text>
</g>
<!-- Category&#45;&gt;Place -->
<g id="edge8" class="edge"><title>Category&#45;&gt;Place</title>
<path fill="none" stroke="#790d80" d="M639.275,-1497.84C642.883,-1471.7 646.971,-1440.32 650,-1412 669.244,-1232.04 685.54,-1027.67 696.588,-875.61"/>
<ellipse fill="none" stroke="#790d80" cx="638.724" cy="-1501.81" rx="4.00001" ry="4.00001"/>
<polygon fill="#790d80" stroke="#790d80" points="696.619,-875.187 701.829,-865.538 696.98,-870.2 697.341,-865.213 697.341,-865.213 697.341,-865.213 696.98,-870.2 692.853,-864.887 696.619,-875.187 696.619,-875.187"/>
</g>
<!-- Category&#45;&gt;CategoriesFeature -->
<g id="edge9" class="edge"><title>Category&#45;&gt;CategoriesFeature</title>
<path fill="none" stroke="#80c5dd" d="M634.387,-1497.61C636.733,-1447.93 638.815,-1374.16 635,-1310 622.033,-1091.92 585.242,-835.548 566.807,-715.903"/>
<ellipse fill="none" stroke="#80c5dd" cx="634.188" cy="-1501.68" rx="4" ry="4"/>
<polygon fill="#80c5dd" stroke="#80c5dd" points="566.772,-715.676 569.69,-705.106 566.007,-710.735 565.243,-705.794 565.243,-705.794 565.243,-705.794 566.007,-710.735 560.796,-706.482 566.772,-715.676 566.772,-715.676"/>
</g>
<!-- Feature -->
<g id="node8" class="node"><title>Feature</title>
<path fill="none" stroke="black" d="M752.495,-1048C752.495,-1048 861.505,-1048 861.505,-1048 867.505,-1048 873.505,-1054 873.505,-1060 873.505,-1060 873.505,-1136 873.505,-1136 873.505,-1142 867.505,-1148 861.505,-1148 861.505,-1148 752.495,-1148 752.495,-1148 746.495,-1148 740.495,-1142 740.495,-1136 740.495,-1136 740.495,-1060 740.495,-1060 740.495,-1054 746.495,-1048 752.495,-1048"/>
<text text-anchor="middle" x="807" y="-1130" font-family="Times,serif" font-size="14.00">Feature</text>
<polyline fill="none" stroke="black" points="740.495,-1123.2 873.505,-1123.2 "/>
<text text-anchor="start" x="748.495" y="-1105.2" font-family="Times,serif" font-size="14.00">id :integer</text>
<text text-anchor="start" x="748.495" y="-1088.4" font-family="Times,serif" font-size="14.00">name :string</text>
<text text-anchor="start" x="748.495" y="-1071.6" font-family="Times,serif" font-size="14.00">created_at :datetime</text>
<text text-anchor="start" x="748.495" y="-1054.8" font-family="Times,serif" font-size="14.00">updated_at :datetime</text>
</g>
<!-- Category&#45;&gt;Feature -->
<g id="edge10" class="edge"><title>Category&#45;&gt;Feature</title>
<path fill="none" stroke="#856a52" d="M653.706,-1496.17C687.506,-1408.6 750.68,-1244.92 784.411,-1157.53"/>
<polygon fill="#856a52" stroke="#856a52" points="653.603,-1496.44 645.804,-1504.15 651.803,-1501.1 650.002,-1505.77 650.002,-1505.77 650.002,-1505.77 651.803,-1501.1 654.2,-1507.39 653.603,-1496.44 653.603,-1496.44"/>
<polygon fill="#856a52" stroke="#856a52" points="784.476,-1157.36 792.275,-1149.65 786.277,-1152.69 788.077,-1148.03 788.077,-1148.03 788.077,-1148.03 786.277,-1152.69 783.879,-1146.41 784.476,-1157.36 784.476,-1157.36"/>
</g>
<!-- PlacesFeature -->
<g id="node12" class="node"><title>PlacesFeature</title>
<path fill="none" stroke="black" d="M757.495,-247.6C757.495,-247.6 866.505,-247.6 866.505,-247.6 872.505,-247.6 878.505,-253.6 878.505,-259.6 878.505,-259.6 878.505,-352.4 878.505,-352.4 878.505,-358.4 872.505,-364.4 866.505,-364.4 866.505,-364.4 757.495,-364.4 757.495,-364.4 751.495,-364.4 745.495,-358.4 745.495,-352.4 745.495,-352.4 745.495,-259.6 745.495,-259.6 745.495,-253.6 751.495,-247.6 757.495,-247.6"/>
<text text-anchor="middle" x="812" y="-346.4" font-family="Times,serif" font-size="14.00">PlacesFeature</text>
<polyline fill="none" stroke="black" points="745.495,-339.6 878.505,-339.6 "/>
<text text-anchor="start" x="753.495" y="-321.6" font-family="Times,serif" font-size="14.00">id :integer</text>
<text text-anchor="start" x="753.495" y="-304.8" font-family="Times,serif" font-size="14.00">place_id :integer</text>
<text text-anchor="start" x="753.495" y="-288" font-family="Times,serif" font-size="14.00">feature_id :integer</text>
<text text-anchor="start" x="753.495" y="-271.2" font-family="Times,serif" font-size="14.00">created_at :datetime</text>
<text text-anchor="start" x="753.495" y="-254.4" font-family="Times,serif" font-size="14.00">updated_at :datetime</text>
</g>
<!-- Feature&#45;&gt;PlacesFeature -->
<g id="edge12" class="edge"><title>Feature&#45;&gt;PlacesFeature</title>
<path fill="none" stroke="#8dccc1" d="M807.364,-1039.45C808.267,-896.833 810.604,-527.593 811.571,-374.768"/>
<ellipse fill="none" stroke="#8dccc1" cx="807.336" cy="-1043.88" rx="4" ry="4"/>
<polygon fill="#8dccc1" stroke="#8dccc1" points="811.572,-374.582 816.135,-364.61 811.604,-369.582 811.636,-364.582 811.636,-364.582 811.636,-364.582 811.604,-369.582 807.136,-364.553 811.572,-374.582 811.572,-374.582"/>
</g>
<!-- Feature&#45;&gt;CategoriesFeature -->
<g id="edge13" class="edge"><title>Feature&#45;&gt;CategoriesFeature</title>
<path fill="none" stroke="#387ffb" d="M756.773,-1041.77C718.175,-997.028 665.752,-930.963 631,-866 605.374,-818.097 585.838,-759.706 573.138,-715.416"/>
<ellipse fill="none" stroke="#387ffb" cx="759.503" cy="-1044.92" rx="4.00002" ry="4.00002"/>
<polygon fill="#387ffb" stroke="#387ffb" points="573.09,-715.244 574.705,-704.397 571.732,-710.431 570.374,-705.619 570.374,-705.619 570.374,-705.619 571.732,-710.431 566.044,-706.841 573.09,-715.244 573.09,-715.244"/>
</g>
<!-- Feature&#45;&gt;Place -->
<g id="edge14" class="edge"><title>Feature&#45;&gt;Place</title>
<path fill="none" stroke="#5d331c" d="M794.489,-1037.87C785.529,-995.521 772.841,-935.552 760.095,-875.313"/>
<polygon fill="#5d331c" stroke="#5d331c" points="794.492,-1037.88 792.159,-1048.6 795.527,-1042.77 796.562,-1047.66 796.562,-1047.66 796.562,-1047.66 795.527,-1042.77 800.964,-1046.73 794.492,-1037.88 794.492,-1037.88"/>
<polygon fill="#5d331c" stroke="#5d331c" points="760.037,-875.036 762.369,-864.321 759.002,-870.144 757.967,-865.253 757.967,-865.253 757.967,-865.253 759.002,-870.144 753.564,-866.184 760.037,-875.036 760.037,-875.036"/>
</g>
<!-- Photo -->
<g id="node9" class="node"><title>Photo</title>
<path fill="none" stroke="black" d="M939.495,-0.4C939.495,-0.4 1048.51,-0.4 1048.51,-0.4 1054.51,-0.4 1060.51,-6.4 1060.51,-12.4 1060.51,-12.4 1060.51,-155.6 1060.51,-155.6 1060.51,-161.6 1054.51,-167.6 1048.51,-167.6 1048.51,-167.6 939.495,-167.6 939.495,-167.6 933.495,-167.6 927.495,-161.6 927.495,-155.6 927.495,-155.6 927.495,-12.4 927.495,-12.4 927.495,-6.4 933.495,-0.4 939.495,-0.4"/>
<text text-anchor="middle" x="994" y="-149.6" font-family="Times,serif" font-size="14.00">Photo</text>
<polyline fill="none" stroke="black" points="927.495,-142.8 1060.51,-142.8 "/>
<text text-anchor="start" x="935.495" y="-124.8" font-family="Times,serif" font-size="14.00">id :integer</text>
<text text-anchor="start" x="935.495" y="-108" font-family="Times,serif" font-size="14.00">place_id :integer</text>
<text text-anchor="start" x="935.495" y="-91.2" font-family="Times,serif" font-size="14.00">description :string</text>
<text text-anchor="start" x="935.495" y="-74.4" font-family="Times,serif" font-size="14.00">image :string</text>
<text text-anchor="start" x="935.495" y="-57.6" font-family="Times,serif" font-size="14.00">user_id :integer</text>
<text text-anchor="start" x="935.495" y="-40.8" font-family="Times,serif" font-size="14.00">created_at :datetime</text>
<text text-anchor="start" x="935.495" y="-24" font-family="Times,serif" font-size="14.00">updated_at :datetime</text>
<text text-anchor="start" x="935.495" y="-7.2" font-family="Times,serif" font-size="14.00">review_id :integer</text>
</g>
<!-- Review -->
<g id="node14" class="node"><title>Review</title>
<path fill="none" stroke="black" d="M939.495,-230.8C939.495,-230.8 1048.51,-230.8 1048.51,-230.8 1054.51,-230.8 1060.51,-236.8 1060.51,-242.8 1060.51,-242.8 1060.51,-369.2 1060.51,-369.2 1060.51,-375.2 1054.51,-381.2 1048.51,-381.2 1048.51,-381.2 939.495,-381.2 939.495,-381.2 933.495,-381.2 927.495,-375.2 927.495,-369.2 927.495,-369.2 927.495,-242.8 927.495,-242.8 927.495,-236.8 933.495,-230.8 939.495,-230.8"/>
<text text-anchor="middle" x="994" y="-363.2" font-family="Times,serif" font-size="14.00">Review</text>
<polyline fill="none" stroke="black" points="927.495,-356.4 1060.51,-356.4 "/>
<text text-anchor="start" x="935.495" y="-338.4" font-family="Times,serif" font-size="14.00">id :integer</text>
<text text-anchor="start" x="935.495" y="-321.6" font-family="Times,serif" font-size="14.00">user_id :integer</text>
<text text-anchor="start" x="935.495" y="-304.8" font-family="Times,serif" font-size="14.00">review :text</text>
<text text-anchor="start" x="935.495" y="-288" font-family="Times,serif" font-size="14.00">rating :float</text>
<text text-anchor="start" x="935.495" y="-271.2" font-family="Times,serif" font-size="14.00">place_id :integer</text>
<text text-anchor="start" x="935.495" y="-254.4" font-family="Times,serif" font-size="14.00">created_at :datetime</text>
<text text-anchor="start" x="935.495" y="-237.6" font-family="Times,serif" font-size="14.00">updated_at :datetime</text>
</g>
<!-- Place&#45;&gt;Review -->
<g id="edge17" class="edge"><title>Place&#45;&gt;Review</title>
<path fill="none" stroke="#89d779" d="M789.403,-552.951C832.074,-501.656 884.575,-438.543 925.71,-389.093"/>
<ellipse fill="none" stroke="#89d779" cx="786.814" cy="-556.064" rx="4.00002" ry="4.00002"/>
<polygon fill="#89d779" stroke="#89d779" points="925.816,-388.966 935.67,-384.156 929.013,-385.122 932.211,-381.278 932.211,-381.278 932.211,-381.278 929.013,-385.122 928.751,-378.4 925.816,-388.966 925.816,-388.966"/>
</g>
<!-- Place&#45;&gt;PlacesAgeGroup -->
<g id="edge18" class="edge"><title>Place&#45;&gt;PlacesAgeGroup</title>
<path fill="none" stroke="#55eacc" d="M695.022,-420.396C685.958,-338.562 672.71,-257.507 654,-222 636.729,-189.223 608.338,-160.346 580.808,-137.66"/>
<ellipse fill="none" stroke="#55eacc" cx="695.507" cy="-424.852" rx="4" ry="4"/>
<polygon fill="#55eacc" stroke="#55eacc" points="580.481,-137.397 575.515,-127.62 576.587,-134.261 572.692,-131.125 572.692,-131.125 572.692,-131.125 576.587,-134.261 569.87,-134.63 580.481,-137.397 580.481,-137.397"/>
</g>
<!-- Place&#45;&gt;AgeGroup -->
<g id="edge19" class="edge"><title>Place&#45;&gt;AgeGroup</title>
<path fill="none" stroke="#71df40" d="M632.729,-429.642C632.157,-429.09 631.581,-428.543 631,-428 587.653,-387.471 553.709,-420.825 503,-390 494.406,-384.776 486.104,-378.405 478.31,-371.538"/>
<polygon fill="#71df40" stroke="#71df40" points="632.97,-429.889 636.715,-440.196 636.455,-433.474 639.941,-437.058 639.941,-437.058 639.941,-437.058 636.455,-433.474 643.167,-433.921 632.97,-429.889 632.97,-429.889"/>
<polygon fill="#71df40" stroke="#71df40" points="478.052,-371.302 473.74,-361.219 474.373,-367.916 470.693,-364.531 470.693,-364.531 470.693,-364.531 474.373,-367.916 467.646,-367.843 478.052,-371.302 478.052,-371.302"/>
</g>
<!-- Place&#45;&gt;PlacesFeature -->
<g id="edge20" class="edge"><title>Place&#45;&gt;PlacesFeature</title>
<path fill="none" stroke="#d9d991" d="M778.37,-421.005C783.277,-404.371 787.948,-388.538 792.162,-374.252"/>
<ellipse fill="none" stroke="#d9d991" cx="777.171" cy="-425.071" rx="4.00001" ry="4.00001"/>
<polygon fill="#d9d991" stroke="#d9d991" points="792.174,-374.21 799.32,-365.892 793.589,-369.414 795.003,-364.618 795.003,-364.618 795.003,-364.618 793.589,-369.414 790.687,-363.345 792.174,-374.21 792.174,-374.21"/>
</g>
<!-- Place&#45;&gt;BusinessHour -->
<g id="edge21" class="edge"><title>Place&#45;&gt;BusinessHour</title>
<path fill="none" stroke="#56fe53" d="M637.001,-443.111C634.994,-438.018 632.991,-432.974 631,-428 627.232,-418.59 623.21,-408.81 619.135,-399.071"/>
<ellipse fill="none" stroke="#56fe53" cx="638.482" cy="-446.883" rx="4.00001" ry="4.00001"/>
<polygon fill="#56fe53" stroke="#56fe53" points="619.096,-398.977 619.366,-388.015 617.157,-394.369 615.218,-389.76 615.218,-389.76 615.218,-389.76 617.157,-394.369 611.07,-391.505 619.096,-398.977 619.096,-398.977"/>
</g>
<!-- Place&#45;&gt;Photo -->
<g id="edge22" class="edge"><title>Place&#45;&gt;Photo</title>
<path fill="none" stroke="#558d67" d="M705.212,-420.856C706.748,-337.886 714.309,-255.871 736,-222 776.675,-158.484 857.164,-122.53 917.479,-103.55"/>
<ellipse fill="none" stroke="#558d67" cx="705.147" cy="-424.888" rx="4" ry="4"/>
<polygon fill="#558d67" stroke="#558d67" points="917.79,-103.455 928.668,-104.84 922.573,-101.996 927.355,-100.536 927.355,-100.536 927.355,-100.536 922.573,-101.996 926.041,-96.232 917.79,-103.455 917.79,-103.455"/>
</g>
<!-- Recurrence -->
<g id="node13" class="node"><title>Recurrence</title>
<path fill="none" stroke="black" d="M512.495,-1311C512.495,-1311 621.505,-1311 621.505,-1311 627.505,-1311 633.505,-1317 633.505,-1323 633.505,-1323 633.505,-1399 633.505,-1399 633.505,-1405 627.505,-1411 621.505,-1411 621.505,-1411 512.495,-1411 512.495,-1411 506.495,-1411 500.495,-1405 500.495,-1399 500.495,-1399 500.495,-1323 500.495,-1323 500.495,-1317 506.495,-1311 512.495,-1311"/>
<text text-anchor="middle" x="567" y="-1393" font-family="Times,serif" font-size="14.00">Recurrence</text>
<polyline fill="none" stroke="black" points="500.495,-1386.2 633.505,-1386.2 "/>
<text text-anchor="start" x="508.495" y="-1368.2" font-family="Times,serif" font-size="14.00">id :integer</text>
<text text-anchor="start" x="508.495" y="-1351.4" font-family="Times,serif" font-size="14.00">name :string</text>
<text text-anchor="start" x="508.495" y="-1334.6" font-family="Times,serif" font-size="14.00">created_at :datetime</text>
<text text-anchor="start" x="508.495" y="-1317.8" font-family="Times,serif" font-size="14.00">updated_at :datetime</text>
</g>
<!-- Recurrence&#45;&gt;Place -->
<g id="edge26" class="edge"><title>Recurrence&#45;&gt;Place</title>
<path fill="none" stroke="#c89d94" d="M577.715,-1302.81C594.582,-1213.35 628.64,-1034.89 660,-884 660.6,-881.112 661.207,-878.204 661.819,-875.28"/>
<ellipse fill="none" stroke="#c89d94" cx="576.927" cy="-1307" rx="4.00001" ry="4.00001"/>
<polygon fill="#c89d94" stroke="#c89d94" points="661.863,-875.069 668.323,-866.207 662.891,-870.175 663.919,-865.282 663.919,-865.282 663.919,-865.282 662.891,-870.175 659.515,-864.357 661.863,-875.069 661.863,-875.069"/>
</g>
<!-- Review&#45;&gt;Photo -->
<g id="edge28" class="edge"><title>Review&#45;&gt;Photo</title>
<path fill="none" stroke="#e2b0cb" d="M994,-222.385C994,-207.86 994,-192.656 994,-177.874"/>
<ellipse fill="none" stroke="#e2b0cb" cx="994" cy="-226.518" rx="4" ry="4"/>
<polygon fill="#e2b0cb" stroke="#e2b0cb" points="994,-177.722 998.5,-167.722 994,-172.722 994,-167.722 994,-167.722 994,-167.722 994,-172.722 989.5,-167.722 994,-177.722 994,-177.722"/>
</g>
<!-- User -->
<g id="node15" class="node"><title>User</title>
<path fill="none" stroke="black" d="M903.722,-905.2C903.722,-905.2 1084.28,-905.2 1084.28,-905.2 1090.28,-905.2 1096.28,-911.2 1096.28,-917.2 1096.28,-917.2 1096.28,-1278.8 1096.28,-1278.8 1096.28,-1284.8 1090.28,-1290.8 1084.28,-1290.8 1084.28,-1290.8 903.722,-1290.8 903.722,-1290.8 897.722,-1290.8 891.722,-1284.8 891.722,-1278.8 891.722,-1278.8 891.722,-917.2 891.722,-917.2 891.722,-911.2 897.722,-905.2 903.722,-905.2"/>
<text text-anchor="middle" x="994" y="-1272.8" font-family="Times,serif" font-size="14.00">User</text>
<polyline fill="none" stroke="black" points="891.722,-1266 1096.28,-1266 "/>
<text text-anchor="start" x="899.722" y="-1248" font-family="Times,serif" font-size="14.00">id :integer</text>
<text text-anchor="start" x="899.722" y="-1231.2" font-family="Times,serif" font-size="14.00">username :string</text>
<text text-anchor="start" x="899.722" y="-1214.4" font-family="Times,serif" font-size="14.00">name :string</text>
<text text-anchor="start" x="899.722" y="-1197.6" font-family="Times,serif" font-size="14.00">email :string</text>
<text text-anchor="start" x="899.722" y="-1180.8" font-family="Times,serif" font-size="14.00">created_at :datetime</text>
<text text-anchor="start" x="899.722" y="-1164" font-family="Times,serif" font-size="14.00">updated_at :datetime</text>
<text text-anchor="start" x="899.722" y="-1147.2" font-family="Times,serif" font-size="14.00">slug :string</text>
<text text-anchor="start" x="899.722" y="-1130.4" font-family="Times,serif" font-size="14.00">encrypted_password :string</text>
<text text-anchor="start" x="899.722" y="-1113.6" font-family="Times,serif" font-size="14.00">reset_password_token :string</text>
<text text-anchor="start" x="899.722" y="-1096.8" font-family="Times,serif" font-size="14.00">reset_password_sent_at :datetime</text>
<text text-anchor="start" x="899.722" y="-1080" font-family="Times,serif" font-size="14.00">remember_created_at :datetime</text>
<text text-anchor="start" x="899.722" y="-1063.2" font-family="Times,serif" font-size="14.00">sign_in_count :integer</text>
<text text-anchor="start" x="899.722" y="-1046.4" font-family="Times,serif" font-size="14.00">current_sign_in_at :datetime</text>
<text text-anchor="start" x="899.722" y="-1029.6" font-family="Times,serif" font-size="14.00">last_sign_in_at :datetime</text>
<text text-anchor="start" x="899.722" y="-1012.8" font-family="Times,serif" font-size="14.00">current_sign_in_ip :string</text>
<text text-anchor="start" x="899.722" y="-996" font-family="Times,serif" font-size="14.00">last_sign_in_ip :string</text>
<text text-anchor="start" x="899.722" y="-979.2" font-family="Times,serif" font-size="14.00">provider :string</text>
<text text-anchor="start" x="899.722" y="-962.4" font-family="Times,serif" font-size="14.00">uid :string</text>
<text text-anchor="start" x="899.722" y="-945.6" font-family="Times,serif" font-size="14.00">authentication_token :string</text>
<text text-anchor="start" x="899.722" y="-928.8" font-family="Times,serif" font-size="14.00">approved :boolean</text>
<text text-anchor="start" x="899.722" y="-912" font-family="Times,serif" font-size="14.00">image :string</text>
</g>
<!-- User&#45;&gt;Place -->
<g id="edge30" class="edge"><title>User&#45;&gt;Place</title>
<path fill="none" stroke="#7362e0" d="M887.371,-912.687C885.574,-909.766 883.783,-906.869 882,-904 852.702,-856.852 819.139,-805.742 789.616,-761.679"/>
<ellipse fill="none" stroke="#7362e0" cx="889.483" cy="-916.131" rx="4.00002" ry="4.00002"/>
<polygon fill="#7362e0" stroke="#7362e0" points="789.532,-761.554 787.697,-750.742 786.746,-757.402 783.96,-753.25 783.96,-753.25 783.96,-753.25 786.746,-757.402 780.223,-755.757 789.532,-761.554 789.532,-761.554"/>
</g>
<!-- User&#45;&gt;Review -->
<g id="edge31" class="edge"><title>User&#45;&gt;Review</title>
<path fill="none" stroke="#605ae0" d="M994,-896.808C994,-733.656 994,-511.352 994,-391.651"/>
<ellipse fill="none" stroke="#605ae0" cx="994" cy="-901.007" rx="4" ry="4"/>
<polygon fill="#605ae0" stroke="#605ae0" points="994,-391.45 998.5,-381.45 994,-386.45 994,-381.45 994,-381.45 994,-381.45 994,-386.45 989.5,-381.45 994,-391.45 994,-391.45"/>
</g>
<!-- ActiveRecord::Base -->
<g id="node16" class="node"><title>ActiveRecord::Base</title>
<ellipse fill="none" stroke="black" cx="566" cy="-1763" rx="88.2033" ry="18"/>
<text text-anchor="middle" x="566" y="-1757.4" font-family="Times,serif" font-size="14.00">ActiveRecord::Base</text>
</g>
<!-- ActiveRecord::Base&#45;&gt;AdminUser -->
<g id="edge1" class="edge"><title>ActiveRecord::Base&#45;&gt;AdminUser</title>
<path fill="none" stroke="black" d="M536.008,-1746.05C517.056,-1736.76 491.743,-1725.77 468,-1720 413.876,-1706.85 267.303,-1727.92 218,-1702 207.442,-1696.45 197.512,-1689.48 188.251,-1681.6"/>
</g>
<!-- ActiveRecord::Base&#45;&gt;AgeGroup -->
<g id="edge4" class="edge"><title>ActiveRecord::Base&#45;&gt;AgeGroup</title>
<path fill="none" stroke="black" d="M533.621,-1746.24C508.826,-1732.56 475.641,-1710.48 456,-1682 423.312,-1634.61 422,-1614.57 422,-1557 422,-1557 422,-1557 422,-646 422,-547.125 422.431,-432.028 422.727,-364.583"/>
</g>
<!-- ActiveRecord::Base&#45;&gt;Authorization -->
<g id="edge5" class="edge"><title>ActiveRecord::Base&#45;&gt;Authorization</title>
<path fill="none" stroke="black" d="M531.913,-1746.26C513.243,-1737.93 489.576,-1727.83 468,-1720 441.83,-1710.5 429.711,-1719.43 408,-1702 382.59,-1681.6 363.831,-1650.96 350.801,-1623.09"/>
</g>
<!-- ActiveRecord::Base&#45;&gt;BusinessHour -->
<g id="edge6" class="edge"><title>ActiveRecord::Base&#45;&gt;BusinessHour</title>
<path fill="none" stroke="black" d="M547.382,-1745.31C531.597,-1730.21 509.439,-1706.62 496,-1682 468.302,-1631.25 460,-1614.81 460,-1557 460,-1557 460,-1557 460,-646 460,-548.704 443.135,-518.041 480,-428 487.765,-409.036 499.56,-390.733 512.334,-374.351"/>
</g>
<!-- ActiveRecord::Base&#45;&gt;CategoriesFeature -->
<g id="edge7" class="edge"><title>ActiveRecord::Base&#45;&gt;CategoriesFeature</title>
<path fill="none" stroke="black" d="M560.764,-1744.96C555.945,-1728.85 548.833,-1703.95 544,-1682 517.836,-1563.19 509.034,-1533.24 499,-1412 477.169,-1148.22 523.721,-832.877 545.534,-705.529"/>
</g>
<!-- ActiveRecord::Base&#45;&gt;Category -->
<g id="edge11" class="edge"><title>ActiveRecord::Base&#45;&gt;Category</title>
<path fill="none" stroke="black" d="M571.43,-1744.87C581.011,-1714.66 601.245,-1650.84 615.463,-1606"/>
</g>
<!-- ActiveRecord::Base&#45;&gt;Feature -->
<g id="edge15" class="edge"><title>ActiveRecord::Base&#45;&gt;Feature</title>
<path fill="none" stroke="black" d="M643.087,-1754.06C677.967,-1746.36 716.547,-1731.32 740,-1702 872.087,-1536.88 838.215,-1259.92 817.442,-1148.06"/>
</g>
<!-- ActiveRecord::Base&#45;&gt;Photo -->
<g id="edge16" class="edge"><title>ActiveRecord::Base&#45;&gt;Photo</title>
<path fill="none" stroke="black" d="M651.79,-1758.44C787.316,-1751.36 1043.25,-1731.69 1118,-1682 1173.33,-1645.22 1200,-1623.44 1200,-1557 1200,-1557 1200,-1557 1200,-305 1200,-221.935 1120.78,-157.29 1060.6,-120.162"/>
</g>
<!-- ActiveRecord::Base&#45;&gt;Place -->
<g id="edge23" class="edge"><title>ActiveRecord::Base&#45;&gt;Place</title>
<path fill="none" stroke="black" d="M615.393,-1747.94C647.353,-1736 686.513,-1715.36 706,-1682 726.212,-1647.4 721.147,-1158.01 716.233,-865.099"/>
</g>
<!-- ActiveRecord::Base&#45;&gt;PlacesAgeGroup -->
<g id="edge24" class="edge"><title>ActiveRecord::Base&#45;&gt;PlacesAgeGroup</title>
<path fill="none" stroke="black" d="M534.033,-1746.07C515.21,-1737.26 490.71,-1726.76 468,-1720 374.152,-1692.08 319.451,-1752.01 251,-1682 211.715,-1641.82 232,-1613.19 232,-1557 232,-1557 232,-1557 232,-305 232,-252.585 383.599,-201.393 424,-168 433.354,-160.269 442.735,-151.51 451.6,-142.651"/>
</g>
<!-- ActiveRecord::Base&#45;&gt;PlacesFeature -->
<g id="edge25" class="edge"><title>ActiveRecord::Base&#45;&gt;PlacesFeature</title>
<path fill="none" stroke="black" d="M634.701,-1751.63C783.849,-1727.19 1124,-1660.14 1124,-1557 1124,-1557 1124,-1557 1124,-646 1124,-574.112 970.18,-436.045 878.549,-360.175"/>
</g>
<!-- ActiveRecord::Base&#45;&gt;Recurrence -->
<g id="edge27" class="edge"><title>ActiveRecord::Base&#45;&gt;Recurrence</title>
<path fill="none" stroke="black" d="M562.959,-1744.9C560.251,-1728.75 556.493,-1703.82 555,-1682 547.354,-1570.26 545.231,-1541.57 555,-1430 555.533,-1423.91 556.33,-1417.55 557.265,-1411.26"/>
</g>
<!-- ActiveRecord::Base&#45;&gt;Review -->
<g id="edge29" class="edge"><title>ActiveRecord::Base&#45;&gt;Review</title>
<path fill="none" stroke="black" d="M645.866,-1755.05C764.127,-1743.7 979.152,-1718.71 1047,-1682 1113.4,-1646.08 1162,-1632.49 1162,-1557 1162,-1557 1162,-1557 1162,-646 1162,-548.526 1183.94,-513.967 1138,-428 1120.3,-394.881 1089.44,-367.1 1060.82,-346.544"/>
</g>
<!-- ActiveRecord::Base&#45;&gt;User -->
<g id="edge32" class="edge"><title>ActiveRecord::Base&#45;&gt;User</title>
<path fill="none" stroke="black" d="M645.392,-1754.92C698.309,-1746.1 765.669,-1726.32 808,-1682 908.716,-1576.55 954.901,-1416.6 976.078,-1290.89"/>
</g>
</g>
</svg>
